@startuml

Admin -> (Adding new actors)
Admin --> (Applications access)
Admin --> (Pairs creating)
Admin ---> (Working with events)
Admin ---> (Access control list)

Candidate --> (Registration)
Candidate -> (View access to contact info)

Mentee -> (View access to profiles)
Mentee -> (Access to events)
Mentee --> (Adding personal data)

Mentor --> (Registration)
Mentor ---> (View access to profiles)
Mentor ----> (Access to events)

Consultant --> (Registration)
Consultant ---> (View access to profiles)
Consultant ----> (Access to events)

@enduml